…
+        fill = 'Approval Result') +
+   scale_fill_manual(values = c("0" = "red", "1" = "green")) 
> 
> # recipe ------------------------------------------------------------------
> 
> my_recipe <- recipe(ACTION ~ ., data = train) %>%
+   step_mutate_at(all_numeric_predictors(), fn = factor) %>% # turn all numeric features into factors
+   step_other(all_nominal_predictors(), threshold = .01) %>%  # combines categorical values that occur <1% into an "other" value
+   step_dummy(all_nominal_predictors())  # dummy variable encoding
>   
> # apply the recipe to the data
> prepped_recipe <- prep(my_recipe)
> baked <- bake(prepped_recipe, new_data = train) # should have 112 columns
> baked
# A tibble: 32,769 × 112
   ACTION RESOURCE_X4675 RESOURCE_X25993 RESOURCE_X75078 RESOURCE_X79092
   <fct>           <dbl>           <dbl>           <dbl>           <dbl>
 1 1                   0               0               0               0
 2 1                   0               0               0               0
 3 1                   0               0               0               0
 4 1                   0               0               0               0
 5 1                   0               0               0               0
 6 0                   0               0               0               0
 7 1                   0               1               0               0
 8 1                   0               0               0               0
 9 1                   0               0               0               0
10 1                   0               0               0               0
# ℹ 32,759 more rows
# ℹ 107 more variables: RESOURCE_other <dbl>, MGR_ID_other <dbl>,
#   ROLE_ROLLUP_1_X117902 <dbl>, ROLE_ROLLUP_1_X117961 <dbl>,
#   ROLE_ROLLUP_1_X118212 <dbl>, ROLE_ROLLUP_1_X118290 <dbl>,
#   ROLE_ROLLUP_1_X118315 <dbl>, ROLE_ROLLUP_1_X118887 <dbl>,
#   ROLE_ROLLUP_1_X119062 <dbl>, ROLE_ROLLUP_1_other <dbl>,
#   ROLE_ROLLUP_2_X117962 <dbl>, ROLE_ROLLUP_2_X117969 <dbl>, …
…
